{
	"info": {
		"_postman_id": "376ae9c6-d035-4ce3-92f6-f11bc09c8517",
		"name": "Movie-bag",
		"schema": "https://schema.getpostman.com/json/collection/v2.1.0/collection.json"
	},
	"item": [
		{
			"name": "Movies",
			"item": [
				{
					"name": "Obtain many",
					"request": {
						"method": "GET",
						"header": [],
						"url": {
							"raw": "http://localhost:5000/api/movies",
							"protocol": "http",
							"host": [
								"localhost"
							],
							"port": "5000",
							"path": [
								"api",
								"movies"
							]
						}
					},
					"response": []
				},
				{
					"name": "Obtain One",
					"request": {
						"method": "GET",
						"header": [],
						"url": {
							"raw": "http://localhost:5000/api/movies/5e1b86b73068c22d17950664",
							"protocol": "http",
							"host": [
								"localhost"
							],
							"port": "5000",
							"path": [
								"api",
								"movies",
								"5e1b86b73068c22d17950664"
							]
						}
					},
					"response": []
				},
				{
					"name": "Create",
					"request": {
						"auth": {
							"type": "bearer",
							"bearer": [
								{
									"key": "token",
									"value": "eyJ0eXAiOiJKV1QiLCJhbGciOiJIUzI1NiJ9.eyJpYXQiOjE1Nzg5NDU0NzEsIm5iZiI6MTU3ODk0NTQ3MSwianRpIjoiZThiNDRiZjgtMjg1Ny00NmYxLTliNGUtMDIwM2M4ZDFhMzRiIiwiZXhwIjoxNTc4OTQ3MjcxLCJpZGVudGl0eSI6IjVlMWNiMGU3ZTMyNjQ1YTg4YjA1ZDk0YyIsImZyZXNoIjpmYWxzZSwidHlwZSI6ImFjY2VzcyJ9.zbSNq7hEh4Wa3wpVeuUefAkB6EUHcfB6NzVwenaEPaQ",
									"type": "string"
								}
							]
						},
						"method": "POST",
						"header": [
							{
								"key": "Content-Type",
								"name": "Content-Type",
								"value": "application/json",
								"type": "text"
							}
						],
						"body": {
							"mode": "raw",
							"raw": "{\n    \"name\": \"The Light Knight\",\n    \"casts\": [\"Christian Bale\", \"Heath Ledger\", \"Aaron Eckhart\", \"Michael Caine\"],\n    \"genres\": [\"Action\", \"Crime\", \"Drama\"]\n\t\n}",
							"options": {
								"raw": {
									"language": "json"
								}
							}
						},
						"url": {
							"raw": "http://localhost:5000/api/movies",
							"protocol": "http",
							"host": [
								"localhost"
							],
							"port": "5000",
							"path": [
								"api",
								"movies"
							]
						}
					},
					"response": []
				},
				{
					"name": "Delete",
					"request": {
						"auth": {
							"type": "bearer",
							"bearer": [
								{
									"key": "token",
									"value": "eyJ0eXAiOiJKV1QiLCJhbGciOiJIUzI1NiJ9.eyJpYXQiOjE1Nzg5NDU1MzYsIm5iZiI6MTU3ODk0NTUzNiwianRpIjoiZGExOTBkZWYtMTExZC00Nzg4LTk3YWQtOGFlMzcyYmRiODhkIiwiZXhwIjoxNTc4OTQ3MzM2LCJpZGVudGl0eSI6IjVlMWNiMGU3ZTMyNjQ1YTg4YjA1ZDk0YyIsImZyZXNoIjpmYWxzZSwidHlwZSI6ImFjY2VzcyJ9.76hPAOIEAoY6_pHcIMO2cB2zMpob5hLlMkCHq1Ru-WE",
									"type": "string"
								}
							]
						},
						"method": "DELETE",
						"header": [
							{
								"key": "Content-Type",
								"name": "Content-Type",
								"type": "text",
								"value": "application/json"
							}
						],
						"url": {
							"raw": "http://localhost:5000/api/movies/5e1ccbc7010a6b640c5d94e3",
							"protocol": "http",
							"host": [
								"localhost"
							],
							"port": "5000",
							"path": [
								"api",
								"movies",
								"5e1ccbc7010a6b640c5d94e3"
							]
						}
					},
					"response": []
				},
				{
					"name": "Update",
					"request": {
						"method": "PUT",
						"header": [
							{
								"key": "Content-Type",
								"name": "Content-Type",
								"type": "text",
								"value": "application/json"
							}
						],
						"body": {
							"mode": "raw",
							"raw": "{\n    \"name\": \"The Dark Knight 2\",\n    \"casts\": [\"Christian Bale\", \"Heath Ledger\", \"Aaron Eckhart\", \"Michael Caine\"],\n    \"genres\": [\"Action\", \"Crime\", \"Drama\"]\n\t\n}",
							"options": {
								"raw": {
									"language": "json"
								}
							}
						},
						"url": {
							"raw": "http://localhost:5000/api/movies/5e1b86843068c22d17950663",
							"protocol": "http",
							"host": [
								"localhost"
							],
							"port": "5000",
							"path": [
								"api",
								"movies",
								"5e1b86843068c22d17950663"
							]
						}
					},
					"response": []
				}
			],
			"protocolProfileBehavior": {}
		},
		{
			"name": "Auth",
			"item": [
				{
					"name": "Signup",
					"request": {
						"method": "POST",
						"header": [
							{
								"key": "Content-Type",
								"name": "Content-Type",
								"value": "application/json",
								"type": "text"
							}
						],
						"body": {
							"mode": "raw",
							"raw": "{\n\t\"email\":\"dasher@gmail.com\",\n\t\"password\":\"1234\"\n}",
							"options": {
								"raw": {
									"language": "json"
								}
							}
						},
						"url": {
							"raw": "http://localhost:5000/api/auth/signup",
							"protocol": "http",
							"host": [
								"localhost"
							],
							"port": "5000",
							"path": [
								"api",
								"auth",
								"signup"
							]
						}
					},
					"response": []
				},
				{
					"name": "Login",
					"request": {
						"method": "POST",
						"header": [
							{
								"key": "Content-Type",
								"name": "Content-Type",
								"type": "text",
								"value": "application/json"
							}
						],
						"body": {
							"mode": "raw",
							"raw": "{\n\t\"email\":\"agustin@gmail.com\",\n\t\"password\":\"1234\"\n}",
							"options": {
								"raw": {
									"language": "json"
								}
							}
						},
						"url": {
							"raw": "http://localhost:5000/api/auth/login",
							"protocol": "http",
							"host": [
								"localhost"
							],
							"port": "5000",
							"path": [
								"api",
								"auth",
								"login"
							]
						}
					},
					"response": []
				}
			],
			"protocolProfileBehavior": {}
		}
	],
	"protocolProfileBehavior": {}
}